\relax 
\providecommand\hyper@newdestlabel[2]{}
\@writefile{toc}{\contentsline {chapter}{Appendices}{58}{section*.25}}
\@writefile{toc}{\contentsline {chapter}{\numberline {A}Personal Reflection}{59}{Appendix.a.A}}
\@writefile{lof}{\addvspace {10\p@ }}
\@writefile{lot}{\addvspace {10\p@ }}
\@writefile{toc}{\contentsline {chapter}{\numberline {B}Ethical Issues Addressed}{61}{Appendix.a.B}}
\@writefile{lof}{\addvspace {10\p@ }}
\@writefile{lot}{\addvspace {10\p@ }}
\@writefile{toc}{\contentsline {chapter}{\numberline {C}Code}{62}{Appendix.a.C}}
\@writefile{lof}{\addvspace {10\p@ }}
\@writefile{lot}{\addvspace {10\p@ }}
\newlabel{codeappendix}{{C}{62}{Code}{Appendix.a.C}{}}
\@writefile{toc}{\contentsline {section}{\numberline {C.1}Repository}{62}{section.a.C.1}}
\@writefile{toc}{\contentsline {section}{\numberline {C.2}New3DtictacBaxter.py}{62}{section.a.C.2}}
\@writefile{toc}{\contentsline {section}{\numberline {C.3}BoardClass3D.py}{85}{section.a.C.3}}
\@writefile{toc}{\contentsline {chapter}{\numberline {D}Board Detection Times Under Varying Light Conditions}{90}{Appendix.a.D}}
\@writefile{lof}{\addvspace {10\p@ }}
\@writefile{lot}{\addvspace {10\p@ }}
\newlabel{houghappendix}{{D}{90}{Board Detection Times Under Varying Light Conditions}{Appendix.a.D}{}}
\@writefile{lof}{\contentsline {figure}{\numberline {D.1}{\ignorespaces Times taken to locate the game board under varying light conditions.}}{90}{figure.a.D.1}}
\newlabel{houghtimetable}{{D.1}{90}{Times taken to locate the game board under varying light conditions}{figure.a.D.1}{}}
\@writefile{lof}{\contentsline {figure}{\numberline {D.2}{\ignorespaces Recorded times in Minimal lighting conditions, arranged in ascending order.}}{91}{figure.a.D.2}}
\newlabel{barminlight}{{D.2}{91}{Recorded times in Minimal lighting conditions, arranged in ascending order}{figure.a.D.2}{}}
\@writefile{lof}{\contentsline {figure}{\numberline {D.3}{\ignorespaces Recorded times in Artificial lighting conditions, arranged in ascending order.}}{91}{figure.a.D.3}}
\newlabel{barartlight}{{D.3}{91}{Recorded times in Artificial lighting conditions, arranged in ascending order}{figure.a.D.3}{}}
\@writefile{lof}{\contentsline {figure}{\numberline {D.4}{\ignorespaces Recorded times in Natural lighting conditions, arranged in ascending order.}}{91}{figure.a.D.4}}
\newlabel{barnatlight}{{D.4}{91}{Recorded times in Natural lighting conditions, arranged in ascending order}{figure.a.D.4}{}}
\@writefile{toc}{\contentsline {chapter}{\numberline {E}Video}{92}{Appendix.a.E}}
\@writefile{lof}{\addvspace {10\p@ }}
\@writefile{lot}{\addvspace {10\p@ }}
\@setckpt{appendix}{
\setcounter{page}{93}
\setcounter{equation}{0}
\setcounter{enumi}{3}
\setcounter{enumii}{0}
\setcounter{enumiii}{0}
\setcounter{enumiv}{24}
\setcounter{footnote}{0}
\setcounter{mpfootnote}{0}
\setcounter{part}{0}
\setcounter{chapter}{5}
\setcounter{section}{0}
\setcounter{subsection}{0}
\setcounter{subsubsection}{0}
\setcounter{paragraph}{0}
\setcounter{subparagraph}{0}
\setcounter{figure}{0}
\setcounter{table}{0}
\setcounter{@pps}{1}
\setcounter{@ppsavesec}{5}
\setcounter{@ppsaveapp}{5}
\setcounter{lips@count}{0}
\setcounter{pp@next@reset}{0}
\setcounter{Item}{35}
\setcounter{Hfootnote}{0}
\setcounter{bookmark@seq@number}{89}
\setcounter{lstnumber}{162}
\setcounter{section@level}{0}
\setcounter{lstlisting}{0}
}
