\relax 
\providecommand\hyper@newdestlabel[2]{}
\providecommand\HyperFirstAtBeginDocument{\AtBeginDocument}
\HyperFirstAtBeginDocument{\ifx\hyper@anchor\@undefined
\global\let\oldcontentsline\contentsline
\gdef\contentsline#1#2#3#4{\oldcontentsline{#1}{#2}{#3}}
\global\let\oldnewlabel\newlabel
\gdef\newlabel#1#2{\newlabelxx{#1}#2}
\gdef\newlabelxx#1#2#3#4#5#6{\oldnewlabel{#1}{{#2}{#3}}}
\AtEndDocument{\ifx\hyper@anchor\@undefined
\let\contentsline\oldcontentsline
\let\newlabel\oldnewlabel
\fi}
\fi}
\global\let\hyper@last\relax 
\gdef\HyperFirstAtBeginDocument#1{#1}
\providecommand\HyField@AuxAddToFields[1]{}
\providecommand\HyField@AuxAddToCoFields[2]{}
\bibstyle{abbrv}
\@input{prelude.aux}
\providecommand \oddpage@label [2]{}
\@input{./Chapters/chapter1.aux}
\@input{./Chapters/chapter2.aux}
\@input{./Chapters/chapter3.aux}
\@input{./Chapters/chapter4.aux}
\@input{./Chapters/chapter5.aux}
\bibdata{refs}
\bibcite{retailgameimg}{1}
\bibcite{3dtictacexamplepic}{2}
\bibcite{minimaximg}{3}
\bibcite{baxterimg}{4}
\bibcite{gripperimg}{5}
\bibcite{rubiks}{6}
\bibcite{crowleysiegler}{7}
\bibcite{4dtictac}{8}
\bibcite{hexafl}{9}
\bibcite{hypercubetictac}{10}
\bibcite{airobin}{11}
\bibcite{oPatashnik}{12}
\bibcite{invkin}{13}
\bibcite{golfex}{14}
\bibcite{armimg}{15}
\@writefile{toc}{\contentsline {chapter}{References}{56}{subsection.5.1.7}}
\bibcite{baxterspecs}{16}
\bibcite{connect4}{17}
\bibcite{indigo}{18}
\bibcite{russelnorvig}{19}
\bibcite{kinectref}{20}
\bibcite{baxterwiki}{21}
\bibcite{blobwiki}{22}
\bibcite{treewiki}{23}
\bibcite{tictacwiki}{24}
\@input{appendix.aux}
