\relax 
\providecommand\hyper@newdestlabel[2]{}
\@writefile{toc}{\contentsline {chapter}{\numberline {3}Development \& Analysis}{18}{chapter.3}}
\@writefile{lof}{\addvspace {10\p@ }}
\@writefile{lot}{\addvspace {10\p@ }}
\newlabel{chapter3}{{3}{18}{Development \& Analysis}{chapter.3}{}}
\@writefile{toc}{\contentsline {section}{\numberline {3.1}Hardware Setup}{18}{section.3.1}}
\@writefile{toc}{\contentsline {subsection}{\numberline {3.1.1}Environment}{18}{subsection.3.1.1}}
\@writefile{lof}{\contentsline {figure}{\numberline {3.1}{\ignorespaces Baxter Env}}{18}{figure.3.1}}
\newlabel{fig_ten}{{3.1}{18}{Baxter Env}{figure.3.1}{}}
\citation{gripperimg}
\@writefile{toc}{\contentsline {subsection}{\numberline {3.1.2}Grippers}{19}{subsection.3.1.2}}
\@writefile{toc}{\contentsline {subsubsection}{Size}{19}{subsubsection*.2}}
\@writefile{lof}{\contentsline {figure}{\numberline {3.2}{\ignorespaces Electric Parallel Gripper Kit \cite  {gripperimg}.}}{19}{figure.3.2}}
\newlabel{fig_17}{{3.2}{19}{Electric Parallel Gripper Kit \cite {gripperimg}}{figure.3.2}{}}
\@writefile{toc}{\contentsline {subsubsection}{Shape}{19}{subsubsection*.3}}
\@writefile{toc}{\contentsline {subsection}{\numberline {3.1.3}Custom Board Game}{19}{subsection.3.1.3}}
\newlabel{custom}{{3.1.3}{19}{Custom Board Game}{subsection.3.1.3}{}}
\@writefile{lof}{\contentsline {figure}{\numberline {3.3}{\ignorespaces painted blocks}}{20}{figure.3.3}}
\newlabel{fig_nine}{{3.3}{20}{painted blocks}{figure.3.3}{}}
\@writefile{lof}{\contentsline {figure}{\numberline {3.4}{\ignorespaces newBoard}}{20}{figure.3.4}}
\newlabel{newboard}{{3.4}{20}{newBoard}{figure.3.4}{}}
\@writefile{toc}{\contentsline {section}{\numberline {3.2}Vision}{20}{section.3.2}}
\newlabel{tracking}{{3.2}{20}{Vision}{section.3.2}{}}
\citation{blobwiki}
\@writefile{lof}{\contentsline {figure}{\numberline {3.5}{\ignorespaces newpieces}}{21}{figure.3.5}}
\newlabel{newpieces}{{3.5}{21}{newpieces}{figure.3.5}{}}
\@writefile{toc}{\contentsline {subsection}{\numberline {3.2.1}Blob Detection}{21}{subsection.3.2.1}}
\newlabel{blob_detect}{{3.2.1}{21}{Blob Detection}{subsection.3.2.1}{}}
\@writefile{toc}{\contentsline {subsubsection}{Colour Calibration}{22}{subsubsection*.4}}
\@writefile{toc}{\contentsline {subsubsection}{Area Threshold}{22}{subsubsection*.5}}
\@writefile{toc}{\contentsline {subsection}{\numberline {3.2.2}Contour Detection}{22}{subsection.3.2.2}}
\newlabel{contour_detect}{{3.2.2}{22}{Contour Detection}{subsection.3.2.2}{}}
\@writefile{lof}{\contentsline {figure}{\numberline {3.6}{\ignorespaces Tracking Shots}}{23}{figure.3.6}}
\newlabel{fig_twelve}{{3.6}{23}{Tracking Shots}{figure.3.6}{}}
\@writefile{lof}{\contentsline {figure}{\numberline {3.7}{\ignorespaces Board tracking}}{23}{figure.3.7}}
\newlabel{fig_thirteen}{{3.7}{23}{Board tracking}{figure.3.7}{}}
\@writefile{toc}{\contentsline {subsubsection}{Analysis}{24}{subsubsection*.6}}
\@writefile{toc}{\contentsline {subsection}{\numberline {3.2.3}Background Subtraction}{24}{subsection.3.2.3}}
\newlabel{bg_sub}{{3.2.3}{24}{Background Subtraction}{subsection.3.2.3}{}}
\@writefile{toc}{\contentsline {subsubsection}{Analysis}{24}{subsubsection*.7}}
\@writefile{lof}{\contentsline {figure}{\numberline {3.8}{\ignorespaces background subtraction}}{25}{figure.3.8}}
\newlabel{fig_fourteen}{{3.8}{25}{background subtraction}{figure.3.8}{}}
\@writefile{toc}{\contentsline {subsection}{\numberline {3.2.4}Hough Circle Detection}{25}{subsection.3.2.4}}
\newlabel{hough_circles}{{3.2.4}{25}{Hough Circle Detection}{subsection.3.2.4}{}}
\@writefile{lof}{\contentsline {figure}{\numberline {3.9}{\ignorespaces Space Hough Detection}}{26}{figure.3.9}}
\newlabel{boardhough}{{3.9}{26}{Space Hough Detection}{figure.3.9}{}}
\citation{golfex}
\citation{golfex}
\@writefile{toc}{\contentsline {subsubsection}{Analysis}{27}{subsubsection*.8}}
\@writefile{toc}{\contentsline {subsection}{\numberline {3.2.5}World Coordinate System Transformations}{27}{subsection.3.2.5}}
\newlabel{WCST}{{3.2.5}{27}{World Coordinate System Transformations}{subsection.3.2.5}{}}
\@writefile{toc}{\contentsline {subsection}{\numberline {3.2.6}Camera Calibration}{28}{subsection.3.2.6}}
\newlabel{camera_calib}{{3.2.6}{28}{Camera Calibration}{subsection.3.2.6}{}}
\citation{golfex}
\@writefile{lof}{\contentsline {figure}{\numberline {3.10}{\ignorespaces calibtest}}{29}{figure.3.10}}
\newlabel{calib_fig}{{3.10}{29}{calibtest}{figure.3.10}{}}
\@writefile{toc}{\contentsline {subsection}{\numberline {3.2.7}Pixel Alignment}{29}{subsection.3.2.7}}
\newlabel{pixel_align}{{3.2.7}{29}{Pixel Alignment}{subsection.3.2.7}{}}
\citation{golfex}
\@writefile{lof}{\contentsline {figure}{\numberline {3.11}{\ignorespaces calibtest}}{30}{figure.3.11}}
\newlabel{calib_results}{{3.11}{30}{calibtest}{figure.3.11}{}}
\@writefile{lof}{\contentsline {figure}{\numberline {3.12}{\ignorespaces calibtest2}}{31}{figure.3.12}}
\newlabel{calib_results2}{{3.12}{31}{calibtest2}{figure.3.12}{}}
\@writefile{toc}{\contentsline {subsubsection}{Offsets}{32}{subsubsection*.9}}
\@writefile{toc}{\contentsline {subsubsection}{Stacking}{32}{subsubsection*.10}}
\citation{hexafl}
\@writefile{toc}{\contentsline {section}{\numberline {3.3}Game Logic}{33}{section.3.3}}
\newlabel{game_logic}{{3.3}{33}{Game Logic}{section.3.3}{}}
\@writefile{toc}{\contentsline {subsection}{\numberline {3.3.1}2D}{33}{subsection.3.3.1}}
\newlabel{2Dlogic}{{3.3.1}{33}{2D}{subsection.3.3.1}{}}
\citation{4dtictac}
\@writefile{lof}{\contentsline {figure}{\numberline {3.13}{\ignorespaces Opposing side}}{34}{figure.3.13}}
\newlabel{fig_fifteen}{{3.13}{34}{Opposing side}{figure.3.13}{}}
\@writefile{toc}{\contentsline {subsection}{\numberline {3.3.2}3D}{34}{subsection.3.3.2}}
\citation{4dtictac}
\citation{hypercubetictac}
\@writefile{toc}{\contentsline {subsubsection}{Generating Winning Lines}{35}{subsubsection*.11}}
\@writefile{toc}{\contentsline {section}{\numberline {3.4}Robot Control}{35}{section.3.4}}
\@writefile{toc}{\contentsline {subsection}{\numberline {3.4.1}Basic Movement}{36}{subsection.3.4.1}}
\@writefile{toc}{\contentsline {subsection}{\numberline {3.4.2}Sensors}{36}{subsection.3.4.2}}
\newlabel{sensors}{{3.4.2}{36}{Sensors}{subsection.3.4.2}{}}
\@writefile{toc}{\contentsline {subsubsection}{Infra-Red Limitations}{36}{subsubsection*.12}}
\@writefile{lof}{\contentsline {figure}{\numberline {3.14}{\ignorespaces pickupDropwithRange example}}{37}{figure.3.14}}
\newlabel{fig_eleven}{{3.14}{37}{pickupDropwithRange example}{figure.3.14}{}}
\citation{invkin}
\@writefile{toc}{\contentsline {subsection}{\numberline {3.4.3}Inverse Kinematics}{38}{subsection.3.4.3}}
\newlabel{inverse_kin}{{3.4.3}{38}{Inverse Kinematics}{subsection.3.4.3}{}}
\@writefile{toc}{\contentsline {subsubsection}{Joint Limitations}{38}{subsubsection*.13}}
\@writefile{toc}{\contentsline {subsection}{\numberline {3.4.4}Head Display}{39}{subsection.3.4.4}}
\@writefile{toc}{\contentsline {section}{\numberline {3.5}Playing Noughts \& Crosses}{39}{section.3.5}}
\@writefile{toc}{\contentsline {subsection}{\numberline {3.5.1}How to run programs}{39}{subsection.3.5.1}}
\newlabel{howto}{{3.5.1}{39}{How to run programs}{subsection.3.5.1}{}}
\@writefile{toc}{\contentsline {subsection}{\numberline {3.5.2}Structure}{40}{subsection.3.5.2}}
\newlabel{classstructure}{{3.5.2}{40}{Structure}{subsection.3.5.2}{}}
\@writefile{toc}{\contentsline {subsection}{\numberline {3.5.3}Robot Class}{40}{subsection.3.5.3}}
\newlabel{robotclass}{{3.5.3}{40}{Robot Class}{subsection.3.5.3}{}}
\@writefile{toc}{\contentsline {subsubsection}{Vision}{40}{subsubsection*.14}}
\@writefile{toc}{\contentsline {subsubsection}{Game Logic}{41}{subsubsection*.15}}
\@writefile{toc}{\contentsline {subsubsection}{Movement}{41}{subsubsection*.16}}
\@writefile{toc}{\contentsline {subsection}{\numberline {3.5.4}Board Class}{42}{subsection.3.5.4}}
\newlabel{board_class}{{3.5.4}{42}{Board Class}{subsection.3.5.4}{}}
\@writefile{toc}{\contentsline {subsubsection}{\texttt  {checkWinner()}}{42}{subsubsection*.17}}
\@writefile{toc}{\contentsline {subsubsection}{\texttt  {isFull()}}{42}{subsubsection*.18}}
\@writefile{toc}{\contentsline {subsubsection}{\texttt  {getCopy()}}{42}{subsubsection*.19}}
\@writefile{toc}{\contentsline {subsection}{\numberline {3.5.5}Space Class}{42}{subsection.3.5.5}}
\newlabel{space_class}{{3.5.5}{42}{Space Class}{subsection.3.5.5}{}}
\@writefile{lof}{\contentsline {figure}{\numberline {3.15}{\ignorespaces Baxter Flow chart}}{43}{figure.3.15}}
\newlabel{fig_sixteen}{{3.15}{43}{Baxter Flow chart}{figure.3.15}{}}
\@setckpt{./Chapters/chapter3}{
\setcounter{page}{44}
\setcounter{equation}{0}
\setcounter{enumi}{5}
\setcounter{enumii}{0}
\setcounter{enumiii}{0}
\setcounter{enumiv}{0}
\setcounter{footnote}{0}
\setcounter{mpfootnote}{0}
\setcounter{part}{0}
\setcounter{chapter}{3}
\setcounter{section}{5}
\setcounter{subsection}{5}
\setcounter{subsubsection}{0}
\setcounter{paragraph}{0}
\setcounter{subparagraph}{0}
\setcounter{figure}{15}
\setcounter{table}{0}
\setcounter{@pps}{0}
\setcounter{@ppsavesec}{0}
\setcounter{@ppsaveapp}{0}
\setcounter{lips@count}{0}
\setcounter{pp@next@reset}{0}
\setcounter{Item}{32}
\setcounter{Hfootnote}{0}
\setcounter{bookmark@seq@number}{59}
\setcounter{lstnumber}{1}
\setcounter{section@level}{0}
\setcounter{lstlisting}{0}
}
