\relax 
\providecommand\hyper@newdestlabel[2]{}
\citation{retailgameimg}
\@writefile{toc}{\contentsline {chapter}{\numberline {2}Background Research}{5}{chapter.2}}
\@writefile{lof}{\addvspace {10\p@ }}
\@writefile{lot}{\addvspace {10\p@ }}
\newlabel{chapter2}{{2}{5}{Background Research}{chapter.2}{}}
\@writefile{toc}{\contentsline {section}{\numberline {2.1}Board Games}{5}{section.2.1}}
\@writefile{toc}{\contentsline {section}{\numberline {2.2}3D Noughts \& Crosses}{5}{section.2.2}}
\@writefile{toc}{\contentsline {subsection}{\numberline {2.2.1}Physical Properties}{5}{subsection.2.2.1}}
\citation{4dtictac}
\citation{4dtictac}
\citation{4dtictac}
\citation{4dtictac}
\@writefile{lof}{\contentsline {figure}{\numberline {2.1}{\ignorespaces 3D Noughts \& Crosses \cite  {retailgameimg}.}}{6}{figure.2.1}}
\newlabel{fig_two}{{2.1}{6}{3D Noughts \& Crosses \cite {retailgameimg}}{figure.2.1}{}}
\@writefile{toc}{\contentsline {subsection}{\numberline {2.2.2}Rules}{6}{subsection.2.2.2}}
\newlabel{rules}{{2.2.2}{6}{Rules}{subsection.2.2.2}{}}
\citation{crowleysiegler}
\@writefile{lof}{\contentsline {figure}{\numberline {2.2}{\ignorespaces Possible winning lines \cite  {4dtictac}.}}{7}{figure.2.2}}
\newlabel{winningLines}{{2.2}{7}{Possible winning lines \cite {4dtictac}}{figure.2.2}{}}
\@writefile{lof}{\contentsline {figure}{\numberline {2.3}{\ignorespaces Addresses of grid spaces \cite  {4dtictac}.}}{7}{figure.2.3}}
\newlabel{gridspaces}{{2.3}{7}{Addresses of grid spaces \cite {4dtictac}}{figure.2.3}{}}
\citation{hexafl}
\citation{tictacwiki}
\@writefile{toc}{\contentsline {subsection}{\numberline {2.2.3}Strategy}{8}{subsection.2.2.3}}
\newlabel{tictacstrat}{{2.2.3}{8}{Strategy}{subsection.2.2.3}{}}
\citation{3dtictacexamplepic}
\@writefile{lof}{\contentsline {figure}{\numberline {2.4}{\ignorespaces Tic Tac Toe Example}}{9}{figure.2.4}}
\newlabel{fig_three}{{2.4}{9}{Tic Tac Toe Example}{figure.2.4}{}}
\@writefile{toc}{\contentsline {subsection}{\numberline {2.2.4}Computer Representation}{9}{subsection.2.2.4}}
\@writefile{lof}{\contentsline {figure}{\numberline {2.5}{\ignorespaces 3D Tic Tac Toe}}{9}{figure.2.5}}
\newlabel{fig_four}{{2.5}{9}{3D Tic Tac Toe}{figure.2.5}{}}
\citation{oPatashnik}
\citation{russelnorvig}
\citation{russelnorvig}
\citation{treewiki}
\@writefile{toc}{\contentsline {section}{\numberline {2.3}Adversarial Search}{10}{section.2.3}}
\@writefile{toc}{\contentsline {subsection}{\numberline {2.3.1}Game Tree}{10}{subsection.2.3.1}}
\newlabel{gametree}{{2.3.1}{10}{Game Tree}{subsection.2.3.1}{}}
\citation{minimaximg}
\citation{russelnorvig}
\@writefile{lof}{\contentsline {figure}{\numberline {2.6}{\ignorespaces Game tree, showing states of playing in a corner, side or in the centre \cite  {treewiki}.}}{11}{figure.2.6}}
\newlabel{gametreefig}{{2.6}{11}{Game tree, showing states of playing in a corner, side or in the centre \cite {treewiki}}{figure.2.6}{}}
\@writefile{toc}{\contentsline {subsection}{\numberline {2.3.2}Minimax}{11}{subsection.2.3.2}}
\newlabel{minimax}{{2.3.2}{11}{Minimax}{subsection.2.3.2}{}}
\citation{airobin}
\citation{airobin}
\@writefile{lof}{\contentsline {figure}{\numberline {2.7}{\ignorespaces Minimax Example \cite  {minimaximg}.}}{12}{figure.2.7}}
\newlabel{minimaxfig}{{2.7}{12}{Minimax Example \cite {minimaximg}}{figure.2.7}{}}
\@writefile{toc}{\contentsline {section}{\numberline {2.4}Robotic Paradigms}{12}{section.2.4}}
\newlabel{paradigm}{{2.4}{12}{Robotic Paradigms}{section.2.4}{}}
\@writefile{toc}{\contentsline {subsection}{\numberline {2.4.1}Hierarchical Paradigm}{12}{subsection.2.4.1}}
\citation{indigo}
\@writefile{toc}{\contentsline {subsection}{\numberline {2.4.2}Reactive Paradigm}{13}{subsection.2.4.2}}
\@writefile{toc}{\contentsline {section}{\numberline {2.5}Robot Operating System (ROS)}{13}{section.2.5}}
\newlabel{rossec}{{2.5}{13}{Robot Operating System (ROS)}{section.2.5}{}}
\@writefile{toc}{\contentsline {subsection}{\numberline {2.5.1}Installation}{13}{subsection.2.5.1}}
\@writefile{toc}{\contentsline {subsection}{\numberline {2.5.2}Architecture}{13}{subsection.2.5.2}}
\@writefile{toc}{\contentsline {subsection}{\numberline {2.5.3}Topics \& Services}{13}{subsection.2.5.3}}
\citation{baxterimg}
\citation{baxterwiki}
\citation{baxterspecs}
\@writefile{toc}{\contentsline {section}{\numberline {2.6}Baxter Research Robot}{14}{section.2.6}}
\@writefile{lof}{\contentsline {figure}{\numberline {2.8}{\ignorespaces Baxter}}{14}{figure.2.8}}
\newlabel{fig_seven}{{2.8}{14}{Baxter}{figure.2.8}{}}
\citation{armimg}
\@writefile{lof}{\contentsline {figure}{\numberline {2.9}{\ignorespaces Baxter Arm}}{15}{figure.2.9}}
\newlabel{fig_eight}{{2.9}{15}{Baxter Arm}{figure.2.9}{}}
\@writefile{toc}{\contentsline {subsection}{\numberline {2.6.1}Baxter Software Development Kit (SDK)}{15}{subsection.2.6.1}}
\citation{golfex}
\citation{connect4}
\citation{rubiks}
\@writefile{toc}{\contentsline {section}{\numberline {2.7}Existing Projects}{16}{section.2.7}}
\@writefile{toc}{\contentsline {subsection}{\numberline {2.7.1}Worked Example Visual Servoing}{16}{subsection.2.7.1}}
\@writefile{toc}{\contentsline {subsection}{\numberline {2.7.2}Connect Four Demo}{16}{subsection.2.7.2}}
\@writefile{toc}{\contentsline {subsection}{\numberline {2.7.3}Baxter Solves Rubiks Cube}{16}{subsection.2.7.3}}
\@writefile{toc}{\contentsline {section}{\numberline {2.8}Software}{17}{section.2.8}}
\@writefile{toc}{\contentsline {subsection}{\numberline {2.8.1}Programming Languages}{17}{subsection.2.8.1}}
\@writefile{toc}{\contentsline {subsection}{\numberline {2.8.2}Libraries}{17}{subsection.2.8.2}}
\@writefile{toc}{\contentsline {subsection}{\numberline {2.8.3}Version Control}{17}{subsection.2.8.3}}
\@setckpt{./Chapters/chapter2}{
\setcounter{page}{18}
\setcounter{equation}{0}
\setcounter{enumi}{9}
\setcounter{enumii}{0}
\setcounter{enumiii}{0}
\setcounter{enumiv}{0}
\setcounter{footnote}{0}
\setcounter{mpfootnote}{0}
\setcounter{part}{0}
\setcounter{chapter}{2}
\setcounter{section}{8}
\setcounter{subsection}{3}
\setcounter{subsubsection}{0}
\setcounter{paragraph}{0}
\setcounter{subparagraph}{0}
\setcounter{figure}{9}
\setcounter{table}{0}
\setcounter{@pps}{0}
\setcounter{@ppsavesec}{0}
\setcounter{@ppsaveapp}{0}
\setcounter{lips@count}{0}
\setcounter{pp@next@reset}{0}
\setcounter{Item}{14}
\setcounter{Hfootnote}{0}
\setcounter{bookmark@seq@number}{32}
\setcounter{lstnumber}{1}
\setcounter{section@level}{0}
\setcounter{lstlisting}{0}
}
