\relax 
\providecommand\hyper@newdestlabel[2]{}
\@writefile{toc}{\contentsline {chapter}{\numberline {1}Introduction}{3}{chapter.1}}
\@writefile{lof}{\addvspace {10\p@ }}
\@writefile{lot}{\addvspace {10\p@ }}
\newlabel{chapter1}{{1}{3}{Introduction}{chapter.1}{}}
\@writefile{toc}{\contentsline {section}{\numberline {1.1}Methodology}{3}{section.1.1}}
\@writefile{toc}{\contentsline {section}{\numberline {1.2}Objectives}{3}{section.1.2}}
\newlabel{objectives}{{1.2}{3}{Objectives}{section.1.2}{}}
\@writefile{toc}{\contentsline {section}{\numberline {1.3}Report Structure}{4}{section.1.3}}
\@writefile{toc}{\contentsline {section}{\numberline {1.4}Schedule}{4}{section.1.4}}
\newlabel{Schedule}{{1.4}{4}{Schedule}{section.1.4}{}}
\@writefile{lof}{\contentsline {figure}{\numberline {1.1}{\ignorespaces Gantt Chart}}{4}{figure.1.1}}
\newlabel{fig_one}{{1.1}{4}{Gantt Chart}{figure.1.1}{}}
\@setckpt{./Chapters/chapter1}{
\setcounter{page}{5}
\setcounter{equation}{0}
\setcounter{enumi}{5}
\setcounter{enumii}{0}
\setcounter{enumiii}{0}
\setcounter{enumiv}{0}
\setcounter{footnote}{0}
\setcounter{mpfootnote}{0}
\setcounter{part}{0}
\setcounter{chapter}{1}
\setcounter{section}{4}
\setcounter{subsection}{0}
\setcounter{subsubsection}{0}
\setcounter{paragraph}{0}
\setcounter{subparagraph}{0}
\setcounter{figure}{1}
\setcounter{table}{0}
\setcounter{@pps}{0}
\setcounter{@ppsavesec}{0}
\setcounter{@ppsaveapp}{0}
\setcounter{lips@count}{0}
\setcounter{pp@next@reset}{0}
\setcounter{Item}{5}
\setcounter{Hfootnote}{0}
\setcounter{bookmark@seq@number}{5}
\setcounter{lstnumber}{1}
\setcounter{section@level}{0}
\setcounter{lstlisting}{0}
}
