\relax 
\providecommand\hyper@newdestlabel[2]{}
\@writefile{toc}{\contentsline {chapter}{\numberline {4}Evaluation}{44}{chapter.4}}
\@writefile{lof}{\addvspace {10\p@ }}
\@writefile{lot}{\addvspace {10\p@ }}
\newlabel{chapter4}{{4}{44}{Evaluation}{chapter.4}{}}
\@writefile{toc}{\contentsline {subsubsection}{Light Conditions}{44}{subsubsection*.20}}
\@writefile{toc}{\contentsline {section}{\numberline {4.1}Board Detection}{44}{section.4.1}}
\@writefile{toc}{\contentsline {subsection}{\numberline {4.1.1}Pixel Point Accuracy of Hough Circle Detection}{44}{subsection.4.1.1}}
\newlabel{pixeltesthough}{{4.1.1}{44}{Pixel Point Accuracy of Hough Circle Detection}{subsection.4.1.1}{}}
\@writefile{lot}{\contentsline {table}{\numberline {4.1}{\ignorespaces Hough Circle pixel point accuracy test results.}}{45}{table.4.1}}
\newlabel{hough_results}{{4.1}{45}{Hough Circle pixel point accuracy test results}{table.4.1}{}}
\@writefile{toc}{\contentsline {subsubsection}{Results}{45}{subsubsection*.21}}
\@writefile{toc}{\contentsline {subsection}{\numberline {4.1.2}Pixel Point Convergence}{45}{subsection.4.1.2}}
\newlabel{pixelcon_exp}{{4.1.2}{45}{Pixel Point Convergence}{subsection.4.1.2}{}}
\@writefile{toc}{\contentsline {subsubsection}{Results}{45}{subsubsection*.22}}
\@writefile{lot}{\contentsline {table}{\numberline {4.2}{\ignorespaces Mean and standard deviation of the recorded times.}}{46}{table.4.2}}
\newlabel{houghvariance}{{4.2}{46}{Mean and standard deviation of the recorded times}{table.4.2}{}}
\@writefile{lof}{\contentsline {figure}{\numberline {4.1}{\ignorespaces Experiments arranged in ascending order by time taken. Means drawn as horizontal lines in corresponding colour.}}{46}{figure.4.1}}
\newlabel{barlight}{{4.1}{46}{Experiments arranged in ascending order by time taken. Means drawn as horizontal lines in corresponding colour}{figure.4.1}{}}
\@writefile{toc}{\contentsline {section}{\numberline {4.2}Object Detection}{47}{section.4.2}}
\newlabel{obj_exp}{{4.2}{47}{Object Detection}{section.4.2}{}}
\@writefile{toc}{\contentsline {subsection}{\numberline {4.2.1}Pixel Point Accuracy of Contours}{47}{subsection.4.2.1}}
\@writefile{toc}{\contentsline {subsubsection}{Results}{47}{subsubsection*.23}}
\@writefile{lof}{\contentsline {figure}{\numberline {4.2}{\ignorespaces calibtest}}{48}{figure.4.2}}
\newlabel{contnocont}{{4.2}{48}{calibtest}{figure.4.2}{}}
\@writefile{lot}{\contentsline {table}{\numberline {4.3}{\ignorespaces Contour accuracy test results after 1000 frames under natural lighting conditions.}}{48}{table.4.3}}
\newlabel{cont_results}{{4.3}{48}{Contour accuracy test results after 1000 frames under natural lighting conditions}{table.4.3}{}}
\@writefile{lof}{\contentsline {figure}{\numberline {4.3}{\ignorespaces Detected contours under natural light.}}{49}{figure.4.3}}
\newlabel{contnatlight}{{4.3}{49}{Detected contours under natural light}{figure.4.3}{}}
\@writefile{lof}{\contentsline {figure}{\numberline {4.4}{\ignorespaces Detected contours under artificial light.}}{49}{figure.4.4}}
\newlabel{contartlight}{{4.4}{49}{Detected contours under artificial light}{figure.4.4}{}}
\@writefile{toc}{\contentsline {section}{\numberline {4.3}Game Play}{49}{section.4.3}}
\@writefile{toc}{\contentsline {subsection}{\numberline {4.3.1}Vision Classifications}{49}{subsection.4.3.1}}
\newlabel{visclass_exp}{{4.3.1}{49}{Vision Classifications}{subsection.4.3.1}{}}
\@writefile{lof}{\contentsline {figure}{\numberline {4.5}{\ignorespaces Detected contours under minimal light.}}{50}{figure.4.5}}
\newlabel{contminlight}{{4.5}{50}{Detected contours under minimal light}{figure.4.5}{}}
\@writefile{toc}{\contentsline {subsection}{\numberline {4.3.2}Game Logic}{50}{subsection.4.3.2}}
\@writefile{toc}{\contentsline {section}{\numberline {4.4}Code Evaluation}{50}{section.4.4}}
\@setckpt{./Chapters/chapter4}{
\setcounter{page}{52}
\setcounter{equation}{0}
\setcounter{enumi}{3}
\setcounter{enumii}{0}
\setcounter{enumiii}{0}
\setcounter{enumiv}{0}
\setcounter{footnote}{0}
\setcounter{mpfootnote}{0}
\setcounter{part}{0}
\setcounter{chapter}{4}
\setcounter{section}{4}
\setcounter{subsection}{0}
\setcounter{subsubsection}{0}
\setcounter{paragraph}{0}
\setcounter{subparagraph}{0}
\setcounter{figure}{5}
\setcounter{table}{3}
\setcounter{@pps}{0}
\setcounter{@ppsavesec}{0}
\setcounter{@ppsaveapp}{0}
\setcounter{lips@count}{0}
\setcounter{pp@next@reset}{0}
\setcounter{Item}{35}
\setcounter{Hfootnote}{0}
\setcounter{bookmark@seq@number}{69}
\setcounter{lstnumber}{1}
\setcounter{section@level}{0}
\setcounter{lstlisting}{0}
}
