\relax 
\providecommand\hyper@newdestlabel[2]{}
\@writefile{toc}{\contentsline {chapter}{\numberline {5}Conclusion}{52}{chapter.5}}
\@writefile{lof}{\addvspace {10\p@ }}
\@writefile{lot}{\addvspace {10\p@ }}
\newlabel{chapter5}{{5}{52}{Conclusion}{chapter.5}{}}
\@writefile{toc}{\contentsline {subsection}{\numberline {5.0.1}Time Plan}{52}{subsection.5.0.1}}
\@writefile{toc}{\contentsline {section}{\numberline {5.1}Extensions}{52}{section.5.1}}
\citation{kinectref}
\@writefile{lof}{\contentsline {figure}{\numberline {5.1}{\ignorespaces Gantt Chart2}}{53}{figure.5.1}}
\newlabel{newtime}{{5.1}{53}{Gantt Chart2}{figure.5.1}{}}
\@writefile{toc}{\contentsline {subsection}{\numberline {5.1.1}Depth Sensing}{53}{subsection.5.1.1}}
\@writefile{toc}{\contentsline {subsection}{\numberline {5.1.2}Error Handling}{53}{subsection.5.1.2}}
\citation{oPatashnik}
\citation{crowleysiegler}
\@writefile{toc}{\contentsline {subsection}{\numberline {5.1.3}Game Variants}{54}{subsection.5.1.3}}
\newlabel{variants}{{5.1.3}{54}{Game Variants}{subsection.5.1.3}{}}
\@writefile{toc}{\contentsline {subsection}{\numberline {5.1.4}Artificial Intelligence}{54}{subsection.5.1.4}}
\@writefile{toc}{\contentsline {subsection}{\numberline {5.1.5}Audio \& Voice Commands}{54}{subsection.5.1.5}}
\@writefile{toc}{\contentsline {subsection}{\numberline {5.1.6}Head Display Nod}{55}{subsection.5.1.6}}
\@writefile{toc}{\contentsline {subsection}{\numberline {5.1.7}Other Games}{55}{subsection.5.1.7}}
\@setckpt{./Chapters/chapter5}{
\setcounter{page}{56}
\setcounter{equation}{0}
\setcounter{enumi}{3}
\setcounter{enumii}{0}
\setcounter{enumiii}{0}
\setcounter{enumiv}{0}
\setcounter{footnote}{0}
\setcounter{mpfootnote}{0}
\setcounter{part}{0}
\setcounter{chapter}{5}
\setcounter{section}{1}
\setcounter{subsection}{7}
\setcounter{subsubsection}{0}
\setcounter{paragraph}{0}
\setcounter{subparagraph}{0}
\setcounter{figure}{1}
\setcounter{table}{0}
\setcounter{@pps}{0}
\setcounter{@ppsavesec}{0}
\setcounter{@ppsaveapp}{0}
\setcounter{lips@count}{0}
\setcounter{pp@next@reset}{0}
\setcounter{Item}{35}
\setcounter{Hfootnote}{0}
\setcounter{bookmark@seq@number}{79}
\setcounter{lstnumber}{1}
\setcounter{section@level}{0}
\setcounter{lstlisting}{0}
}
